<svg width="16" height="16" viewBox="0 0 16 16" fill="none" xmlns="http://www.w3.org/2000/svg">
<path d="M6.2855 3.44387V0.571277C6.2854 0.255672 6.02949 -0.000100418 5.71389 2.95757e-08C5.55203 3.3512e-05 5.39781 0.0687394 5.28947 0.188975L0.146591 5.90332C-0.0414797 6.11279 -0.0490133 6.42799 0.128879 6.64619L5.27179 12.9319C5.47161 13.1762 5.83161 13.2122 6.0759 13.0124C6.20822 12.9042 6.28513 12.7423 6.2855 12.5714V9.72393C10.7998 9.87079 13.617 11.8005 14.8867 15.6097C14.9646 15.8427 15.1828 15.9999 15.4285 16C15.4593 16.0001 15.4901 15.9976 15.5205 15.9925C15.7969 15.9474 15.9999 15.7086 15.9999 15.4285C15.9999 8.69934 11.949 3.75586 6.2855 3.44387Z" fill="white"/>
</svg>
