<svg width="28" height="28" viewBox="0 0 28 28" fill="none" xmlns="http://www.w3.org/2000/svg">
<path d="M12.2562 16.6229L16.8102 14.0001L12.2562 11.3772V16.6229Z" fill="#354657"/>
<path d="M14 0C6.2692 0 0 6.2692 0 14C0 21.7308 6.2692 28 14 28C21.7308 28 28 21.7308 28 14C28 6.2692 21.7308 0 14 0ZM22.7479 14.0143C22.7479 14.0143 22.7479 16.8536 22.3877 18.2227C22.1858 18.9721 21.5949 19.563 20.8456 19.7646C19.4764 20.125 14 20.125 14 20.125C14 20.125 8.53787 20.125 7.15445 19.7503C6.40506 19.5486 5.81418 18.9576 5.6123 18.2082C5.25192 16.8536 5.25192 14 5.25192 14C5.25192 14 5.25192 11.1609 5.6123 9.79184C5.81396 9.04245 6.41937 8.43704 7.15445 8.23538C8.52356 7.875 14 7.875 14 7.875C14 7.875 19.4764 7.875 20.8456 8.24969C21.5949 8.45135 22.1858 9.04245 22.3877 9.79184C22.7624 11.1609 22.7479 14.0143 22.7479 14.0143Z" fill="#354657"/>
</svg>
